<svg xmlns="http://www.w3.org/2000/svg" width="16" height="10" viewBox="0 0 16 10">
    <g fill="none" fill-rule="evenodd">
        <path d="M-1-3h18v18H-1z"/>
        <path fill="#FFF" fill-rule="nonzero" d="M8 0C4.364 0 1.258 2.073 0 5c1.258 2.927 4.364 5 8 5s6.742-2.073 8-5c-1.258-2.927-4.364-5-8-5zm0 9C5.792 9 4 7.208 4 5s1.792-4 4-4 4 1.792 4 4-1.792 4-4 4zm0-6c-1.107 0-2 .893-2 2s.893 2 2 2 2-.893 2-2-.893-2-2-2z"/>
    </g>
</svg>
