<svg xmlns="http://www.w3.org/2000/svg" width="14" height="14" viewBox="0 0 14 14">
    <g fill="none" fill-rule="evenodd">
        <path d="M-2-2h18v18H-2z"/>
        <path fill="#FFF" fill-rule="nonzero" d="M5 7a1 1 0 1 0 0 2 1 1 0 0 0 0-2zm4 0a1 1 0 1 0 0 2 1 1 0 0 0 0-2zM7 0C3.136 0 0 3.136 0 7s3.136 7 7 7 7-3.136 7-7-3.136-7-7-7zm0 13c-3.308 0-6-2.775-6-6.184 0-.224.015-.448.038-.665C2.808 5.34 4.21 4.848 4.944 3c1.357 1.979 3.592 2.27 6.12 2.27.585 0 1.148-.07 1.688-.201.157.549.247 1.136.247 1.747C13 10.225 10.307 13 7 13z"/>
    </g>
</svg>
