{
  "default": null,
  "moderated": {
    "title": "на модерации",
    "description": "Модерация предложения может занять некоторое время. Обычно это не более 2 часов."
  },
  "closed": {
    "title": "завершено"
  },
  "rejected": {
    "title": "отклонено",
    "description": "Выше предложение не удовлетворяет потребности сервиса. Измените описание товара. В случае затруднения свяжитесь с менеджером."
  }
}
